%YAML 1.1
%TAG !u! tag:unity3d.com,2011:
--- !u!1 &378623939330185845
GameObject:
  m_ObjectHideFlags: 0
  m_CorrespondingSourceObject: {fileID: 0}
  m_PrefabInstance: {fileID: 0}
  m_PrefabAsset: {fileID: 0}
  serializedVersion: 6
  m_Component:
  - component: {fileID: 378623939330185847}
  - component: {fileID: 378623939330185846}
  - component: {fileID: 378623939330185848}
  m_Layer: 12
  m_Name: Door
  m_TagString: Interactable
  m_Icon: {fileID: 0}
  m_NavMeshLayer: 0
  m_StaticEditorFlags: 0
  m_IsActive: 1
--- !u!4 &378623939330185847
Transform:
  m_ObjectHideFlags: 0
  m_CorrespondingSourceObject: {fileID: 0}
  m_PrefabInstance: {fileID: 0}
  m_PrefabAsset: {fileID: 0}
  m_GameObject: {fileID: 378623939330185845}
  m_LocalRotation: {x: 0, y: 0, z: 0, w: 1}
  m_LocalPosition: {x: 0, y: 0, z: 0}
  m_LocalScale: {x: 1.5, y: 1.5, z: 1.5}
  m_Children:
  - {fileID: 7614600723344425774}
  m_Father: {fileID: 0}
  m_RootOrder: 0
  m_LocalEulerAnglesHint: {x: 0, y: 90, z: 0}
--- !u!114 &378623939330185846
MonoBehaviour:
  m_ObjectHideFlags: 0
  m_CorrespondingSourceObject: {fileID: 0}
  m_PrefabInstance: {fileID: 0}
  m_PrefabAsset: {fileID: 0}
  m_GameObject: {fileID: 378623939330185845}
  m_Enabled: 1
  m_EditorHideFlags: 0
  m_Script: {fileID: 11500000, guid: 43f0bb7ba72bf80449cd37f509b143bb, type: 3}
  m_Name: 
  m_EditorClassIdentifier: 
  doorInfo: {fileID: 11400000, guid: 9595b7eeb5e3c6447b9a7cb3ff599d3c, type: 2}
  _keyManager: {fileID: 0}
--- !u!65 &378623939330185848
BoxCollider:
  m_ObjectHideFlags: 0
  m_CorrespondingSourceObject: {fileID: 0}
  m_PrefabInstance: {fileID: 0}
  m_PrefabAsset: {fileID: 0}
  m_GameObject: {fileID: 378623939330185845}
  m_Material: {fileID: 0}
  m_IsTrigger: 1
  m_Enabled: 1
  serializedVersion: 2
  m_Size: {x: 1.1006889, y: 1.6516478, z: 1.7065471}
  m_Center: {x: -0.1239748, y: 0.04699731, z: 0.0033382773}
--- !u!1001 &132910547064507651
PrefabInstance:
  m_ObjectHideFlags: 0
  serializedVersion: 2
  m_Modification:
    m_TransformParent: {fileID: 378623939330185847}
    m_Modifications:
    - target: {fileID: 5222212056441733332, guid: 6d7a739afa8840e47b2269073a4ea42e, type: 3}
      propertyPath: m_Name
      value: Wooden_Door
      objectReference: {fileID: 0}
    - target: {fileID: 5222212056441733332, guid: 6d7a739afa8840e47b2269073a4ea42e, type: 3}
      propertyPath: m_Layer
      value: 12
      objectReference: {fileID: 0}
    - target: {fileID: 5222212056441733332, guid: 6d7a739afa8840e47b2269073a4ea42e, type: 3}
      propertyPath: m_StaticEditorFlags
      value: 0
      objectReference: {fileID: 0}
    - target: {fileID: 7526727135987125805, guid: 6d7a739afa8840e47b2269073a4ea42e, type: 3}
      propertyPath: m_RootOrder
      value: 0
      objectReference: {fileID: 0}
    - target: {fileID: 7526727135987125805, guid: 6d7a739afa8840e47b2269073a4ea42e, type: 3}
      propertyPath: m_LocalScale.x
      value: 1
      objectReference: {fileID: 0}
    - target: {fileID: 7526727135987125805, guid: 6d7a739afa8840e47b2269073a4ea42e, type: 3}
      propertyPath: m_LocalScale.y
      value: 1
      objectReference: {fileID: 0}
    - target: {fileID: 7526727135987125805, guid: 6d7a739afa8840e47b2269073a4ea42e, type: 3}
      propertyPath: m_LocalScale.z
      value: 1
      objectReference: {fileID: 0}
    - target: {fileID: 7526727135987125805, guid: 6d7a739afa8840e47b2269073a4ea42e, type: 3}
      propertyPath: m_LocalPosition.x
      value: 0
      objectReference: {fileID: 0}
    - target: {fileID: 7526727135987125805, guid: 6d7a739afa8840e47b2269073a4ea42e, type: 3}
      propertyPath: m_LocalPosition.y
      value: 0
      objectReference: {fileID: 0}
    - target: {fileID: 7526727135987125805, guid: 6d7a739afa8840e47b2269073a4ea42e, type: 3}
      propertyPath: m_LocalPosition.z
      value: 0
      objectReference: {fileID: 0}
    - target: {fileID: 7526727135987125805, guid: 6d7a739afa8840e47b2269073a4ea42e, type: 3}
      propertyPath: m_LocalRotation.w
      value: 1
      objectReference: {fileID: 0}
    - target: {fileID: 7526727135987125805, guid: 6d7a739afa8840e47b2269073a4ea42e, type: 3}
      propertyPath: m_LocalRotation.x
      value: 0
      objectReference: {fileID: 0}
    - target: {fileID: 7526727135987125805, guid: 6d7a739afa8840e47b2269073a4ea42e, type: 3}
      propertyPath: m_LocalRotation.y
      value: 0
      objectReference: {fileID: 0}
    - target: {fileID: 7526727135987125805, guid: 6d7a739afa8840e47b2269073a4ea42e, type: 3}
      propertyPath: m_LocalRotation.z
      value: 0
      objectReference: {fileID: 0}
    - target: {fileID: 7526727135987125805, guid: 6d7a739afa8840e47b2269073a4ea42e, type: 3}
      propertyPath: m_LocalEulerAnglesHint.x
      value: 0
      objectReference: {fileID: 0}
    - target: {fileID: 7526727135987125805, guid: 6d7a739afa8840e47b2269073a4ea42e, type: 3}
      propertyPath: m_LocalEulerAnglesHint.y
      value: 0
      objectReference: {fileID: 0}
    - target: {fileID: 7526727135987125805, guid: 6d7a739afa8840e47b2269073a4ea42e, type: 3}
      propertyPath: m_LocalEulerAnglesHint.z
      value: 0
      objectReference: {fileID: 0}
    m_RemovedComponents: []
  m_SourcePrefab: {fileID: 100100000, guid: 6d7a739afa8840e47b2269073a4ea42e, type: 3}
--- !u!4 &7614600723344425774 stripped
Transform:
  m_CorrespondingSourceObject: {fileID: 7526727135987125805, guid: 6d7a739afa8840e47b2269073a4ea42e, type: 3}
  m_PrefabInstance: {fileID: 132910547064507651}
  m_PrefabAsset: {fileID: 0}
