%YAML 1.1
%TAG !u! tag:unity3d.com,2011:
--- !u!29 &1
OcclusionCullingSettings:
  m_ObjectHideFlags: 0
  serializedVersion: 2
  m_OcclusionBakeSettings:
    smallestOccluder: 5
    smallestHole: 0.25
    backfaceThreshold: 100
  m_SceneGUID: 00000000000000000000000000000000
  m_OcclusionCullingData: {fileID: 0}
--- !u!104 &2
RenderSettings:
  m_ObjectHideFlags: 0
  serializedVersion: 9
  m_Fog: 0
  m_FogColor: {r: 0.5, g: 0.5, b: 0.5, a: 1}
  m_FogMode: 3
  m_FogDensity: 0.01
  m_LinearFogStart: 0
  m_LinearFogEnd: 300
  m_AmbientSkyColor: {r: 0.212, g: 0.227, b: 0.259, a: 1}
  m_AmbientEquatorColor: {r: 0.114, g: 0.125, b: 0.133, a: 1}
  m_AmbientGroundColor: {r: 0.047, g: 0.043, b: 0.035, a: 1}
  m_AmbientIntensity: 0
  m_AmbientMode: 0
  m_SubtractiveShadowColor: {r: 0.42, g: 0.478, b: 0.627, a: 1}
  m_SkyboxMaterial: {fileID: 2100000, guid: 68d01bf4b82936b41b7b92dd9c76dc8e, type: 2}
  m_HaloStrength: 0.5
  m_FlareStrength: 1
  m_FlareFadeSpeed: 3
  m_HaloTexture: {fileID: 0}
  m_SpotCookie: {fileID: 10001, guid: 0000000000000000e000000000000000, type: 0}
  m_DefaultReflectionMode: 1
  m_DefaultReflectionResolution: 128
  m_ReflectionBounces: 1
  m_ReflectionIntensity: 0
  m_CustomReflection: {fileID: 8900000, guid: 45a73ad4fd24d254faec8b7eeca12ad9, type: 3}
  m_Sun: {fileID: 0}
  m_IndirectSpecularColor: {r: 0, g: 0, b: 0, a: 0}
  m_UseRadianceAmbientProbe: 0
--- !u!157 &3
LightmapSettings:
  m_ObjectHideFlags: 0
  serializedVersion: 12
  m_GIWorkflowMode: 1
  m_GISettings:
    serializedVersion: 2
    m_BounceScale: 1
    m_IndirectOutputScale: 1
    m_AlbedoBoost: 1
    m_EnvironmentLightingMode: 0
    m_EnableBakedLightmaps: 1
    m_EnableRealtimeLightmaps: 0
  m_LightmapEditorSettings:
    serializedVersion: 12
    m_Resolution: 2
    m_BakeResolution: 40
    m_AtlasSize: 1024
    m_AO: 0
    m_AOMaxDistance: 1
    m_CompAOExponent: 1
    m_CompAOExponentDirect: 0
    m_ExtractAmbientOcclusion: 0
    m_Padding: 2
    m_LightmapParameters: {fileID: 0}
    m_LightmapsBakeMode: 1
    m_TextureCompression: 1
    m_FinalGather: 0
    m_FinalGatherFiltering: 1
    m_FinalGatherRayCount: 256
    m_ReflectionCompression: 2
    m_MixedBakeMode: 2
    m_BakeBackend: 0
    m_PVRSampling: 1
    m_PVRDirectSampleCount: 32
    m_PVRSampleCount: 500
    m_PVRBounces: 2
    m_PVREnvironmentSampleCount: 500
    m_PVREnvironmentReferencePointCount: 2048
    m_PVRFilteringMode: 2
    m_PVRDenoiserTypeDirect: 0
    m_PVRDenoiserTypeIndirect: 0
    m_PVRDenoiserTypeAO: 0
    m_PVRFilterTypeDirect: 0
    m_PVRFilterTypeIndirect: 0
    m_PVRFilterTypeAO: 0
    m_PVREnvironmentMIS: 0
    m_PVRCulling: 1
    m_PVRFilteringGaussRadiusDirect: 1
    m_PVRFilteringGaussRadiusIndirect: 5
    m_PVRFilteringGaussRadiusAO: 2
    m_PVRFilteringAtrousPositionSigmaDirect: 0.5
    m_PVRFilteringAtrousPositionSigmaIndirect: 2
    m_PVRFilteringAtrousPositionSigmaAO: 1
    m_ExportTrainingData: 0
    m_TrainingDataDestination: TrainingData
    m_LightProbeSampleCountMultiplier: 4
  m_LightingDataAsset: {fileID: 112000002, guid: 473f4b88df6e17246a938ecad2217d7f, type: 2}
  m_LightingSettings: {fileID: 4890085278179872738, guid: ffe01c0a348742944aa1cf846bf72eb6, type: 2}
--- !u!196 &4
NavMeshSettings:
  serializedVersion: 2
  m_ObjectHideFlags: 0
  m_BuildSettings:
    serializedVersion: 2
    agentTypeID: 0
    agentRadius: 0.5
    agentHeight: 2
    agentSlope: 45
    agentClimb: 0.4
    ledgeDropHeight: 0
    maxJumpAcrossDistance: 0
    minRegionArea: 2
    manualCellSize: 0
    cellSize: 0.16666667
    manualTileSize: 0
    tileSize: 256
    accuratePlacement: 0
    maxJobWorkers: 0
    preserveTilesOutsideBounds: 0
    debug:
      m_Flags: 0
  m_NavMeshData: {fileID: 0}
--- !u!114 &78369959
MonoBehaviour:
  m_ObjectHideFlags: 0
  m_CorrespondingSourceObject: {fileID: 0}
  m_PrefabInstance: {fileID: 0}
  m_PrefabAsset: {fileID: 0}
  m_GameObject: {fileID: 0}
  m_Enabled: 1
  m_EditorHideFlags: 0
  m_Script: {fileID: 11500000, guid: ec0b4dd729a12d046982652f834580a2, type: 3}
  m_Name: volumes
  m_EditorClassIdentifier: 
  resolution: 16
  bitmask: 1
  id: 1
  sortingID: 0
  isImplicit: 1
  area: 0
  totalVertexCount: 813120
  vertexCounter: 0
  sceneLodLevel: -1
  sceneName: 
  containsTerrains: 0
  probes: 1
  mode: 2
  renderMode: 1000
  renderDirMode: 5
  atlasPacker: 1000
  computeSSS: 0
  sssSamples: 16
  sssDensity: 10
  sssColor: {r: 1, g: 1, b: 1, a: 1}
  sssScale: 1
  fakeShadowBias: 0
  transparentSelfShadow: 0
  flipNormal: 0
  parentName: 
  overridePath: 
  fixPos3D: 1
  voxelSize: {x: 0.50082904, y: 0.51591885, z: 0.50144845}
  passedFilter: 0
--- !u!1 &250158893
GameObject:
  m_ObjectHideFlags: 0
  m_CorrespondingSourceObject: {fileID: 0}
  m_PrefabInstance: {fileID: 0}
  m_PrefabAsset: {fileID: 0}
  serializedVersion: 6
  m_Component:
  - component: {fileID: 250158895}
  - component: {fileID: 250158894}
  m_Layer: 0
  m_Name: Skylight
  m_TagString: Untagged
  m_Icon: {fileID: 0}
  m_NavMeshLayer: 0
  m_StaticEditorFlags: 0
  m_IsActive: 1
--- !u!114 &250158894
MonoBehaviour:
  m_ObjectHideFlags: 0
  m_CorrespondingSourceObject: {fileID: 0}
  m_PrefabInstance: {fileID: 0}
  m_PrefabAsset: {fileID: 0}
  m_GameObject: {fileID: 250158893}
  m_Enabled: 1
  m_EditorHideFlags: 0
  m_Script: {fileID: 11500000, guid: 306a56f30ff21b5439963fc745cfe9cc, type: 3}
  m_Name: 
  m_EditorClassIdentifier: 
  texName: sky.dds
  color: {r: 0.75735295, g: 0.9096348, b: 1, a: 1}
  intensity: 1
  samples: 32
  hemispherical: 0
  bitmask: 1
  bakeToIndirect: 1
  indirectIntensity: 1
  tangentSH: 0
  correctRotation: 0
  cubemap: {fileID: 0}
  UID: -1083481115
--- !u!4 &250158895
Transform:
  m_ObjectHideFlags: 0
  m_CorrespondingSourceObject: {fileID: 0}
  m_PrefabInstance: {fileID: 0}
  m_PrefabAsset: {fileID: 0}
  m_GameObject: {fileID: 250158893}
  m_LocalRotation: {x: 0, y: 0, z: 0, w: 1}
  m_LocalPosition: {x: 0, y: 10, z: 0}
  m_LocalScale: {x: 1, y: 1, z: 1}
  m_Children: []
  m_Father: {fileID: 0}
  m_RootOrder: 3
  m_LocalEulerAnglesHint: {x: 0, y: 0, z: 0}
--- !u!114 &269713350
MonoBehaviour:
  m_ObjectHideFlags: 0
  m_CorrespondingSourceObject: {fileID: 0}
  m_PrefabInstance: {fileID: 0}
  m_PrefabAsset: {fileID: 0}
  m_GameObject: {fileID: 0}
  m_Enabled: 1
  m_EditorHideFlags: 0
  m_Script: {fileID: 11500000, guid: ec0b4dd729a12d046982652f834580a2, type: 3}
  m_Name: example_volumes_simple_shadowmask_LM0
  m_EditorClassIdentifier: 
  resolution: 512
  bitmask: 1
  id: 0
  sortingID: 1
  isImplicit: 1
  area: 17982.99
  totalVertexCount: 0
  vertexCounter: 0
  sceneLodLevel: -1
  sceneName: example_volumes_simple_shadowmask
  containsTerrains: 0
  probes: 0
  mode: 1
  renderMode: 1000
  renderDirMode: 1000
  atlasPacker: 1000
  computeSSS: 0
  sssSamples: 16
  sssDensity: 10
  sssColor: {r: 1, g: 1, b: 1, a: 1}
  sssScale: 1
  fakeShadowBias: 0
  transparentSelfShadow: 0
  flipNormal: 0
  parentName: 
  overridePath: 
  fixPos3D: 0
  voxelSize: {x: 1, y: 1, z: 1}
  passedFilter: 0
--- !u!1 &368641736
GameObject:
  m_ObjectHideFlags: 1
  m_CorrespondingSourceObject: {fileID: 0}
  m_PrefabInstance: {fileID: 0}
  m_PrefabAsset: {fileID: 0}
  serializedVersion: 6
  m_Component:
  - component: {fileID: 368641738}
  - component: {fileID: 368641737}
  m_Layer: 0
  m_Name: '!ftraceLightmaps'
  m_TagString: Untagged
  m_Icon: {fileID: 0}
  m_NavMeshLayer: 0
  m_StaticEditorFlags: 0
  m_IsActive: 1
--- !u!114 &368641737
MonoBehaviour:
  m_ObjectHideFlags: 1
  m_CorrespondingSourceObject: {fileID: 0}
  m_PrefabInstance: {fileID: 0}
  m_PrefabAsset: {fileID: 0}
  m_GameObject: {fileID: 368641736}
  m_Enabled: 1
  m_EditorHideFlags: 0
  m_Script: {fileID: 11500000, guid: b7fa80e7116296f4eb4f49ec1544ee22, type: 3}
  m_Name: 
  m_EditorClassIdentifier: 
  renderSettingsBounces: 5
  renderSettingsGISamples: 16
  renderSettingsGIBackFaceWeight: 0
  renderSettingsTileSize: 512
  renderSettingsPriority: 2
  renderSettingsTexelsPerUnit: 5
  renderSettingsForceRefresh: 1
  renderSettingsForceRebuildGeometry: 1
  renderSettingsPerformRendering: 1
  renderSettingsUserRenderMode: 2
  renderSettingsDistanceShadowmask: 0
  renderSettingsSettingsMode: 1
  renderSettingsFixSeams: 1
  renderSettingsDenoise: 1
  renderSettingsDenoise2x: 0
  renderSettingsEncode: 1
  renderSettingsEncodeMode: 0
  renderSettingsOverwriteWarning: 0
  renderSettingsAutoAtlas: 1
  renderSettingsUnwrapUVs: 1
  renderSettingsForceDisableUnwrapUVs: 0
  renderSettingsMaxAutoResolution: 4096
  renderSettingsMinAutoResolution: 16
  renderSettingsUnloadScenes: 0
  renderSettingsAdjustSamples: 1
  renderSettingsGILODMode: 0
  renderSettingsGILODModeEnabled: 0
  renderSettingsCheckOverlaps: 0
  renderSettingsSkipOutOfBoundsUVs: 1
  renderSettingsHackEmissiveBoost: 1
  renderSettingsHackIndirectBoost: 1
  renderSettingsTempPath: 
  renderSettingsOutPath: Bakery/examples/lightmaps
  renderSettingsUseScenePath: 0
  renderSettingsHackAOIntensity: 0
  renderSettingsHackAOSamples: 16
  renderSettingsHackAORadius: 1
  renderSettingsShowAOSettings: 0
  renderSettingsShowTasks: 1
  renderSettingsShowTasks2: 0
  renderSettingsShowPaths: 1
  renderSettingsShowNet: 1
  renderSettingsOcclusionProbes: 1
  renderSettingsTexelsPerMap: 0
  renderSettingsTexelsColor: 1
  renderSettingsTexelsMask: 1
  renderSettingsTexelsDir: 1
  renderSettingsShowDirWarning: 1
  renderSettingsRenderDirMode: 0
  renderSettingsShowCheckerSettings: 1
  renderSettingsSamplesWarning: 1
  renderSettingsPrefabWarning: 1
  renderSettingsSplitByScene: 0
  renderSettingsUVPaddingMax: 0
  renderSettingsPostPacking: 1
  renderSettingsHoleFilling: 1
  renderSettingsBeepOnFinish: 0
  renderSettingsExportTerrainAsHeightmap: 1
  renderSettingsRTXMode: 0
  renderSettingsLightProbeMode: 0
  renderSettingsClientMode: 0
  renderSettingsServerAddress: 127.0.0.1
  renderSettingsUnwrapper: 0
  renderSettingsDenoiserType: 100
  renderSettingsExportTerrainTrees: 0
  renderSettingsShowPerf: 1
  renderSettingsSampleDiv: 1
  renderSettingsAtlasPacker: 1
  renderSettingsBatchPoints: 1
  renderSettingsCompressVolumes: 0
  renderSettingsSector: {fileID: 0}
  renderSettingsRTPVExport: 1
  renderSettingsRTPVSceneView: 0
  renderSettingsRTPVWidth: 640
  renderSettingsRTPVHeight: 360
  lastBakeTime: 31
  enlightenWarningShown: 0
  enlightenWarningShown2: 0
  lightUIDs: e5636bbf8607ea30
  lights:
  - tform:
      e00: 1
      e01: 0
      e02: 0
      e03: 0
      e10: 0
      e11: 1
      e12: 0
      e13: 0
      e20: 0
      e21: 0
      e22: 1
      e23: 0
      e30: 0
      e31: 0
      e32: 0
      e33: 1
    color: {r: 0.75735295, g: 0.9096348, b: 1, a: 1}
    intensity: 1
    range: 0
    radius: 0
    samples: 32
    samples2: 0
    bitmask: 0
    bakeToIndirect: 1
    selfShadow: 0
    realisticFalloff: 0
    projMode: 0
    cookie: {fileID: 0}
    angle: 30
  - tform:
      e00: 0.81240153
      e01: -0.5513006
      e02: 0.18992479
      e03: 0
      e10: -0.34056592
      e11: -0.71300495
      e12: -0.6128939
      e13: 3
      e20: 0.47330606
      e21: 0.43323404
      e22: -0.76700056
      e23: 0
      e30: 0
      e31: 0
      e32: 0
      e33: 1
    color: {r: 1, g: 0.80344826, b: 0.625, a: 1}
    intensity: 1
    range: 0
    radius: 0.025
    samples: 16
    samples2: 0
    bitmask: 0
    bakeToIndirect: 0
    selfShadow: 0
    realisticFalloff: 0
    projMode: 0
    cookie: {fileID: 0}
    angle: 30
  implicitGroups:
  - {fileID: 78369959}
  - {fileID: 269713350}
  - {fileID: 269713350}
  - {fileID: 269713350}
  implicitGroupedObjects:
  - {fileID: 0}
  - {fileID: 880385936}
  - {fileID: 1191666459}
  - {fileID: 1209676339}
  bounds:
  - m_Center: {x: -19.130314, y: 12.479044, z: 13.142523}
    m_Extent: {x: 59.136517, y: 12.479048, z: 40.018883}
  - m_Center: {x: 0, y: 0, z: 0}
    m_Extent: {x: 5000, y: 5000, z: 5000}
  hasEmissive: 01
  uvBuffOffsets: 
  uvBuffLengths: 
  uvSrcBuff: []
  uvDestBuff: []
  lmrIndicesOffsets: 
  lmrIndicesLengths: 
  lmrIndicesBuff: 
  lmGroupLODResFlags: 
  lmGroupMinLOD: 
  lmGroupLODMatrix: 
  serverGetFileList: []
  lightmapHasColor: 0101
  lightmapHasMask: 0101
  lightmapHasDir: 0000
  lightmapHasRNM: 0001
  modifiedAssetPathList:
  - Assets/Bakery/examples/content/volume_test_scene.FBX
  modifiedAssets:
  - meshName:
    - lamp2
    - lamp
    - terrain
    - wagon
    padding: 9d0000009d0000000600000032000000
    unwrapper: 00000000000000000000000000000000
  maps:
  - {fileID: 2800000, guid: 511f85df937a2b541bda06d7ae3cf7ff, type: 3}
  masks:
  - {fileID: 2800000, guid: 7e99d64503c90ef49b3da041d4fed404, type: 3}
  dirMaps: []
  rnmMaps0: []
  rnmMaps1: []
  rnmMaps2: []
  mapsMode: 
  bakedRenderers:
  - {fileID: 880385938}
  - {fileID: 1191666461}
  - {fileID: 1209676341}
  bakedIDs: 000000000000000000000000
  bakedScaleOffset:
  - {x: 0.07480579, y: 0.0752388, z: -0.011469247, w: -0.011535637}
  - {x: 1.0089183, y: 1.0087734, z: -0.0059116306, w: -0.0059107817}
  - {x: 0.074805774, y: 0.075238794, z: 0.12943095, w: 0.05891446}
  bakedVertexOffset: ffffffffffffffffffffffff
  bakedVertexColorMesh:
  - {fileID: 0}
  - {fileID: 0}
  - {fileID: 0}
  nonBakedRenderers: []
  bakedLights:
  - {fileID: 1382655389}
  bakedLightChannels: 00000000
  bakedRenderersTerrain: []
  bakedIDsTerrain: 
  bakedScaleOffsetTerrain: []
  assetList: []
  uvOverlapAssetList: 
  idremap: 00000000
  usesRealtimeGI: 0
  emptyDirectionTex: {fileID: 0}
  anyVolumes: 1
  compressedVolumes: 0
  sectors: []
--- !u!4 &368641738
Transform:
  m_ObjectHideFlags: 1
  m_CorrespondingSourceObject: {fileID: 0}
  m_PrefabInstance: {fileID: 0}
  m_PrefabAsset: {fileID: 0}
  m_GameObject: {fileID: 368641736}
  m_LocalRotation: {x: 0, y: 0, z: 0, w: 1}
  m_LocalPosition: {x: 0, y: 0, z: 0}
  m_LocalScale: {x: 1, y: 1, z: 1}
  m_Children: []
  m_Father: {fileID: 0}
  m_RootOrder: 4
  m_LocalEulerAnglesHint: {x: 0, y: 0, z: 0}
--- !u!1 &619579564
GameObject:
  m_ObjectHideFlags: 0
  m_CorrespondingSourceObject: {fileID: 0}
  m_PrefabInstance: {fileID: 0}
  m_PrefabAsset: {fileID: 0}
  serializedVersion: 6
  m_Component:
  - component: {fileID: 619579566}
  - component: {fileID: 619579565}
  m_Layer: 0
  m_Name: Volume
  m_TagString: Untagged
  m_Icon: {fileID: 0}
  m_NavMeshLayer: 0
  m_StaticEditorFlags: 0
  m_IsActive: 1
--- !u!114 &619579565
MonoBehaviour:
  m_ObjectHideFlags: 0
  m_CorrespondingSourceObject: {fileID: 0}
  m_PrefabInstance: {fileID: 0}
  m_PrefabAsset: {fileID: 0}
  m_GameObject: {fileID: 619579564}
  m_Enabled: 1
  m_EditorHideFlags: 0
  m_Script: {fileID: 11500000, guid: 17ce3c1d3490b7143a67ebdc73cab6c1, type: 3}
  m_Name: 
  m_EditorClassIdentifier: 
  enableBaking: 1
  bounds:
    m_Center: {x: -19.294228, y: 4.6591883, z: 12.897182}
    m_Extent: {x: 60.60031, y: 5.1591883, z: 42.12167}
  adaptiveRes: 1
  voxelsPerUnit: 2
  resolutionX: 242
  resolutionY: 20
  resolutionZ: 168
  encoding: 0
  shadowmaskEncoding: 0
  denoise: 0
  isGlobal: 1
  bakedTexture0: {fileID: 11700000, guid: 29d7ed34eb658764fa898404bc1ceb06, type: 2}
  bakedTexture1: {fileID: 11700000, guid: 7fb520a4d42725c42b830af0e325535f, type: 2}
  bakedTexture2: {fileID: 11700000, guid: b703888051293e8439db70223b22c3e0, type: 2}
  bakedTexture3: {fileID: 0}
  bakedMask: {fileID: 11700000, guid: bf4a58d587ac8824ba64cf22ea9a6800, type: 2}
  supportRotationAfterBake: 0
--- !u!4 &619579566
Transform:
  m_ObjectHideFlags: 0
  m_CorrespondingSourceObject: {fileID: 0}
  m_PrefabInstance: {fileID: 0}
  m_PrefabAsset: {fileID: 0}
  m_GameObject: {fileID: 619579564}
  m_LocalRotation: {x: 0, y: 0, z: 0, w: 1}
  m_LocalPosition: {x: -19.294228, y: 4.6591883, z: 12.897182}
  m_LocalScale: {x: 1, y: 1, z: 1}
  m_Children: []
  m_Father: {fileID: 0}
  m_RootOrder: 5
  m_LocalEulerAnglesHint: {x: 0, y: 0, z: 0}
--- !u!1 &880385936 stripped
GameObject:
  m_CorrespondingSourceObject: {fileID: 100000, guid: 51259141edc618b4aaf79bd3cd3c9be8, type: 3}
  m_PrefabInstance: {fileID: 1018329185}
  m_PrefabAsset: {fileID: 0}
--- !u!23 &880385938 stripped
MeshRenderer:
  m_CorrespondingSourceObject: {fileID: 2300000, guid: 51259141edc618b4aaf79bd3cd3c9be8, type: 3}
  m_PrefabInstance: {fileID: 1018329185}
  m_PrefabAsset: {fileID: 0}
--- !u!1001 &1018329185
PrefabInstance:
  m_ObjectHideFlags: 0
  serializedVersion: 2
  m_Modification:
    m_TransformParent: {fileID: 0}
    m_Modifications:
    - target: {fileID: 100000, guid: 51259141edc618b4aaf79bd3cd3c9be8, type: 3}
      propertyPath: m_StaticEditorFlags
      value: 4294967295
      objectReference: {fileID: 0}
    - target: {fileID: 100002, guid: 51259141edc618b4aaf79bd3cd3c9be8, type: 3}
      propertyPath: m_StaticEditorFlags
      value: 4294967295
      objectReference: {fileID: 0}
    - target: {fileID: 100004, guid: 51259141edc618b4aaf79bd3cd3c9be8, type: 3}
      propertyPath: m_Layer
      value: 0
      objectReference: {fileID: 0}
    - target: {fileID: 100004, guid: 51259141edc618b4aaf79bd3cd3c9be8, type: 3}
      propertyPath: m_IsActive
      value: 1
      objectReference: {fileID: 0}
    - target: {fileID: 100008, guid: 51259141edc618b4aaf79bd3cd3c9be8, type: 3}
      propertyPath: m_StaticEditorFlags
      value: 4294967295
      objectReference: {fileID: 0}
    - target: {fileID: 100012, guid: 51259141edc618b4aaf79bd3cd3c9be8, type: 3}
      propertyPath: m_StaticEditorFlags
      value: 0
      objectReference: {fileID: 0}
    - target: {fileID: 400010, guid: 51259141edc618b4aaf79bd3cd3c9be8, type: 3}
      propertyPath: m_RootOrder
      value: 1
      objectReference: {fileID: 0}
    - target: {fileID: 400010, guid: 51259141edc618b4aaf79bd3cd3c9be8, type: 3}
      propertyPath: m_LocalPosition.x
      value: 0
      objectReference: {fileID: 0}
    - target: {fileID: 400010, guid: 51259141edc618b4aaf79bd3cd3c9be8, type: 3}
      propertyPath: m_LocalPosition.y
      value: 0
      objectReference: {fileID: 0}
    - target: {fileID: 400010, guid: 51259141edc618b4aaf79bd3cd3c9be8, type: 3}
      propertyPath: m_LocalPosition.z
      value: 0
      objectReference: {fileID: 0}
    - target: {fileID: 400010, guid: 51259141edc618b4aaf79bd3cd3c9be8, type: 3}
      propertyPath: m_LocalRotation.w
      value: 1
      objectReference: {fileID: 0}
    - target: {fileID: 400010, guid: 51259141edc618b4aaf79bd3cd3c9be8, type: 3}
      propertyPath: m_LocalRotation.x
      value: 0
      objectReference: {fileID: 0}
    - target: {fileID: 400010, guid: 51259141edc618b4aaf79bd3cd3c9be8, type: 3}
      propertyPath: m_LocalRotation.y
      value: 0
      objectReference: {fileID: 0}
    - target: {fileID: 400010, guid: 51259141edc618b4aaf79bd3cd3c9be8, type: 3}
      propertyPath: m_LocalRotation.z
      value: 0
      objectReference: {fileID: 0}
    - target: {fileID: 2300000, guid: 51259141edc618b4aaf79bd3cd3c9be8, type: 3}
      propertyPath: m_Materials.Array.data[0]
      value: 
      objectReference: {fileID: 2100000, guid: 4b8d8761dc69e1949a7f36cc7307f0d5, type: 2}
    - target: {fileID: 2300002, guid: 51259141edc618b4aaf79bd3cd3c9be8, type: 3}
      propertyPath: m_Materials.Array.data[0]
      value: 
      objectReference: {fileID: 2100000, guid: 4b8d8761dc69e1949a7f36cc7307f0d5, type: 2}
    - target: {fileID: 2300004, guid: 51259141edc618b4aaf79bd3cd3c9be8, type: 3}
      propertyPath: m_Materials.Array.data[0]
      value: 
      objectReference: {fileID: 2100000, guid: 8cda24404aa2bed4bba545b626447cf0, type: 2}
    - target: {fileID: 2300006, guid: 51259141edc618b4aaf79bd3cd3c9be8, type: 3}
      propertyPath: m_Materials.Array.data[0]
      value: 
      objectReference: {fileID: 2100000, guid: 7e966ab8bb97d1d4495eb2fe10e4ef95, type: 2}
    - target: {fileID: 2300008, guid: 51259141edc618b4aaf79bd3cd3c9be8, type: 3}
      propertyPath: m_Materials.Array.data[0]
      value: 
      objectReference: {fileID: 2100000, guid: 8cda24404aa2bed4bba545b626447cf0, type: 2}
    - target: {fileID: 2300010, guid: 51259141edc618b4aaf79bd3cd3c9be8, type: 3}
      propertyPath: m_Materials.Array.data[0]
      value: 
      objectReference: {fileID: 2100000, guid: 8cda24404aa2bed4bba545b626447cf0, type: 2}
    m_RemovedComponents: []
  m_SourcePrefab: {fileID: 100100000, guid: 51259141edc618b4aaf79bd3cd3c9be8, type: 3}
--- !u!1 &1191666459 stripped
GameObject:
  m_CorrespondingSourceObject: {fileID: 100008, guid: 51259141edc618b4aaf79bd3cd3c9be8, type: 3}
  m_PrefabInstance: {fileID: 1018329185}
  m_PrefabAsset: {fileID: 0}
--- !u!23 &1191666461 stripped
MeshRenderer:
  m_CorrespondingSourceObject: {fileID: 2300006, guid: 51259141edc618b4aaf79bd3cd3c9be8, type: 3}
  m_PrefabInstance: {fileID: 1018329185}
  m_PrefabAsset: {fileID: 0}
--- !u!1 &1209676339 stripped
GameObject:
  m_CorrespondingSourceObject: {fileID: 100002, guid: 51259141edc618b4aaf79bd3cd3c9be8, type: 3}
  m_PrefabInstance: {fileID: 1018329185}
  m_PrefabAsset: {fileID: 0}
--- !u!23 &1209676341 stripped
MeshRenderer:
  m_CorrespondingSourceObject: {fileID: 2300002, guid: 51259141edc618b4aaf79bd3cd3c9be8, type: 3}
  m_PrefabInstance: {fileID: 1018329185}
  m_PrefabAsset: {fileID: 0}
--- !u!1 &1382655386
GameObject:
  m_ObjectHideFlags: 0
  m_CorrespondingSourceObject: {fileID: 0}
  m_PrefabInstance: {fileID: 0}
  m_PrefabAsset: {fileID: 0}
  serializedVersion: 6
  m_Component:
  - component: {fileID: 1382655388}
  - component: {fileID: 1382655387}
  - component: {fileID: 1382655389}
  m_Layer: 0
  m_Name: Directional Light
  m_TagString: Untagged
  m_Icon: {fileID: 0}
  m_NavMeshLayer: 0
  m_StaticEditorFlags: 0
  m_IsActive: 1
--- !u!114 &1382655387
MonoBehaviour:
  m_ObjectHideFlags: 0
  m_CorrespondingSourceObject: {fileID: 0}
  m_PrefabInstance: {fileID: 0}
  m_PrefabAsset: {fileID: 0}
  m_GameObject: {fileID: 1382655386}
  m_Enabled: 1
  m_EditorHideFlags: 0
  m_Script: {fileID: 11500000, guid: c74ce2158ae608549902afb4112fd042, type: 3}
  m_Name: 
  m_EditorClassIdentifier: 
  color: {r: 1, g: 0.80344826, b: 0.625, a: 1}
  intensity: 1
  shadowSpread: 0.025
  samples: 16
  bitmask: 1
  bakeToIndirect: 0
  shadowmask: 1
  shadowmaskDenoise: 0
  indirectIntensity: 1
  cloudShadow: {fileID: 0}
  cloudShadowTilingX: 0.01
  cloudShadowTilingY: 0.01
  cloudShadowOffsetX: 0
  cloudShadowOffsetY: 0
  UID: 820643718
--- !u!4 &1382655388
Transform:
  m_ObjectHideFlags: 0
  m_CorrespondingSourceObject: {fileID: 0}
  m_PrefabInstance: {fileID: 0}
  m_PrefabAsset: {fileID: 0}
  m_GameObject: {fileID: 1382655386}
  m_LocalRotation: {x: 0.90724957, y: -0.24576107, z: 0.18275866, w: 0.28826907}
  m_LocalPosition: {x: 0, y: 3, z: 0}
  m_LocalScale: {x: 1, y: 1, z: 1}
  m_Children: []
  m_Father: {fileID: 0}
  m_RootOrder: 2
  m_LocalEulerAnglesHint: {x: 37.799004, y: 166.09201, z: 205.53099}
--- !u!108 &1382655389
Light:
  m_ObjectHideFlags: 0
  m_CorrespondingSourceObject: {fileID: 0}
  m_PrefabInstance: {fileID: 0}
  m_PrefabAsset: {fileID: 0}
  m_GameObject: {fileID: 1382655386}
  m_Enabled: 1
  serializedVersion: 10
  m_Type: 1
  m_Shape: 0
  m_Color: {r: 1, g: 0.80344826, b: 0.625, a: 1}
  m_Intensity: 1
  m_Range: 10
  m_SpotAngle: 30
  m_InnerSpotAngle: 21.80208
  m_CookieSize: 10
  m_Shadows:
    m_Type: 2
    m_Resolution: -1
    m_CustomResolution: -1
    m_Strength: 1
    m_Bias: 0.05
    m_NormalBias: 0.4
    m_NearPlane: 0.2
    m_CullingMatrixOverride:
      e00: 1
      e01: 0
      e02: 0
      e03: 0
      e10: 0
      e11: 1
      e12: 0
      e13: 0
      e20: 0
      e21: 0
      e22: 1
      e23: 0
      e30: 0
      e31: 0
      e32: 0
      e33: 1
    m_UseCullingMatrixOverride: 0
  m_Cookie: {fileID: 0}
  m_DrawHalo: 0
  m_Flare: {fileID: 0}
  m_RenderMode: 0
  m_CullingMask:
    serializedVersion: 2
    m_Bits: 4294967295
  m_RenderingLayerMask: 1
  m_Lightmapping: 1
  m_LightShadowCasterMode: 0
  m_AreaSize: {x: 1, y: 1}
  m_BounceIntensity: 1
  m_ColorTemperature: 6570
  m_UseColorTemperature: 0
  m_BoundingSphereOverride: {x: 0, y: 0, z: 0, w: 0}
  m_UseBoundingSphereOverride: 0
  m_UseViewFrustumForShadowCasterCull: 1
  m_ShadowRadius: 0
  m_ShadowAngle: 0
--- !u!1 &1755572499
GameObject:
  m_ObjectHideFlags: 0
  m_CorrespondingSourceObject: {fileID: 0}
  m_PrefabInstance: {fileID: 0}
  m_PrefabAsset: {fileID: 0}
  serializedVersion: 6
  m_Component:
  - component: {fileID: 1755572502}
  - component: {fileID: 1755572501}
  - component: {fileID: 1755572500}
  m_Layer: 0
  m_Name: README
  m_TagString: Untagged
  m_Icon: {fileID: 0}
  m_NavMeshLayer: 0
  m_StaticEditorFlags: 0
  m_IsActive: 1
--- !u!102 &1755572500
TextMesh:
  serializedVersion: 3
  m_ObjectHideFlags: 0
  m_CorrespondingSourceObject: {fileID: 0}
  m_PrefabInstance: {fileID: 0}
  m_PrefabAsset: {fileID: 0}
  m_GameObject: {fileID: 1755572499}
  m_Text: 'One global volume is used for both GI and static shadows.

    Train ->
    Scene shadow is real-time, but

    Scene -> Train shadow is baked into volume.


    Press
    Play to see it in motion.


    (bake it first)'
  m_OffsetZ: 0
  m_CharacterSize: 1
  m_LineSpacing: 1
  m_Anchor: 0
  m_Alignment: 0
  m_TabSize: 4
  m_FontSize: 0
  m_FontStyle: 0
  m_RichText: 0
  m_Font: {fileID: 10102, guid: 0000000000000000e000000000000000, type: 0}
  m_Color:
    serializedVersion: 2
    rgba: 4294967295
--- !u!23 &1755572501
MeshRenderer:
  m_ObjectHideFlags: 0
  m_CorrespondingSourceObject: {fileID: 0}
  m_PrefabInstance: {fileID: 0}
  m_PrefabAsset: {fileID: 0}
  m_GameObject: {fileID: 1755572499}
  m_Enabled: 1
  m_CastShadows: 1
  m_ReceiveShadows: 1
  m_DynamicOccludee: 1
  m_MotionVectors: 1
  m_LightProbeUsage: 1
  m_ReflectionProbeUsage: 1
  m_RayTracingMode: 2
  m_RayTraceProcedural: 0
  m_RenderingLayerMask: 1
  m_RendererPriority: 0
  m_Materials:
  - {fileID: 10100, guid: 0000000000000000e000000000000000, type: 0}
  m_StaticBatchInfo:
    firstSubMesh: 0
    subMeshCount: 0
  m_StaticBatchRoot: {fileID: 0}
  m_ProbeAnchor: {fileID: 0}
  m_LightProbeVolumeOverride: {fileID: 0}
  m_ScaleInLightmap: 1
  m_ReceiveGI: 1
  m_PreserveUVs: 0
  m_IgnoreNormalsForChartDetection: 0
  m_ImportantGI: 0
  m_StitchLightmapSeams: 1
  m_SelectedEditorRenderState: 3
  m_MinimumChartSize: 4
  m_AutoUVMaxDistance: 0.5
  m_AutoUVMaxAngle: 89
  m_LightmapParameters: {fileID: 0}
  m_SortingLayerID: 0
  m_SortingLayer: 0
  m_SortingOrder: 0
  m_AdditionalVertexStreams: {fileID: 0}
--- !u!4 &1755572502
Transform:
  m_ObjectHideFlags: 0
  m_CorrespondingSourceObject: {fileID: 0}
  m_PrefabInstance: {fileID: 0}
  m_PrefabAsset: {fileID: 0}
  m_GameObject: {fileID: 1755572499}
  m_LocalRotation: {x: 0, y: 1, z: 0, w: 0}
  m_LocalPosition: {x: 5.24, y: 14.7, z: -28.1}
  m_LocalScale: {x: 1.2797692, y: 1.2797688, z: 1.2797688}
  m_Children: []
  m_Father: {fileID: 0}
  m_RootOrder: 6
  m_LocalEulerAnglesHint: {x: 0, y: 180, z: 0}
--- !u!1 &2058759529
GameObject:
  m_ObjectHideFlags: 0
  m_CorrespondingSourceObject: {fileID: 0}
  m_PrefabInstance: {fileID: 0}
  m_PrefabAsset: {fileID: 0}
  serializedVersion: 6
  m_Component:
  - component: {fileID: 2058759534}
  - component: {fileID: 2058759533}
  - component: {fileID: 2058759531}
  - component: {fileID: 2058759530}
  m_Layer: 0
  m_Name: Main Camera
  m_TagString: MainCamera
  m_Icon: {fileID: 0}
  m_NavMeshLayer: 0
  m_StaticEditorFlags: 0
  m_IsActive: 1
--- !u!81 &2058759530
AudioListener:
  m_ObjectHideFlags: 0
  m_CorrespondingSourceObject: {fileID: 0}
  m_PrefabInstance: {fileID: 0}
  m_PrefabAsset: {fileID: 0}
  m_GameObject: {fileID: 2058759529}
  m_Enabled: 1
--- !u!124 &2058759531
Behaviour:
  m_ObjectHideFlags: 0
  m_CorrespondingSourceObject: {fileID: 0}
  m_PrefabInstance: {fileID: 0}
  m_PrefabAsset: {fileID: 0}
  m_GameObject: {fileID: 2058759529}
  m_Enabled: 1
--- !u!20 &2058759533
Camera:
  m_ObjectHideFlags: 0
  m_CorrespondingSourceObject: {fileID: 0}
  m_PrefabInstance: {fileID: 0}
  m_PrefabAsset: {fileID: 0}
  m_GameObject: {fileID: 2058759529}
  m_Enabled: 1
  serializedVersion: 2
  m_ClearFlags: 1
  m_BackGroundColor: {r: 0.19215687, g: 0.3019608, b: 0.4745098, a: 0}
  m_projectionMatrixMode: 1
  m_GateFitMode: 2
  m_FOVAxisMode: 0
  m_SensorSize: {x: 36, y: 24}
  m_LensShift: {x: 0, y: 0}
  m_FocalLength: 50
  m_NormalizedViewPortRect:
    serializedVersion: 2
    x: 0
    y: 0
    width: 1
    height: 1
  near clip plane: 0.3
  far clip plane: 1000
  field of view: 60
  orthographic: 0
  orthographic size: 5
  m_Depth: -1
  m_CullingMask:
    serializedVersion: 2
    m_Bits: 4294967295
  m_RenderingPath: -1
  m_TargetTexture: {fileID: 0}
  m_TargetDisplay: 0
  m_TargetEye: 3
  m_HDR: 1
  m_AllowMSAA: 1
  m_AllowDynamicResolution: 0
  m_ForceIntoRT: 0
  m_OcclusionCulling: 1
  m_StereoConvergence: 10
  m_StereoSeparation: 0.022
--- !u!4 &2058759534
Transform:
  m_ObjectHideFlags: 0
  m_CorrespondingSourceObject: {fileID: 0}
  m_PrefabInstance: {fileID: 0}
  m_PrefabAsset: {fileID: 0}
  m_GameObject: {fileID: 2058759529}
  m_LocalRotation: {x: -0.10722363, y: 0.8548478, z: -0.19566, w: -0.4684609}
  m_LocalPosition: {x: 35.694813, y: 25.856583, z: 36.533764}
  m_LocalScale: {x: 1, y: 1, z: 1}
  m_Children: []
  m_Father: {fileID: 0}
  m_RootOrder: 0
  m_LocalEulerAnglesHint: {x: 0, y: 0, z: 0}
