%YAML 1.1
%TAG !u! tag:unity3d.com,2011:
--- !u!114 &11400000
MonoBehaviour:
  m_ObjectHideFlags: 0
  m_CorrespondingSourceObject: {fileID: 0}
  m_PrefabInstance: {fileID: 0}
  m_PrefabAsset: {fileID: 0}
  m_GameObject: {fileID: 0}
  m_Enabled: 1
  m_EditorHideFlags: 0
  m_Script: {fileID: 11500000, guid: 87a986e5d47932d438475a38b3acc8ae, type: 3}
  m_Name: Level02
  m_EditorClassIdentifier: 
  sceneName: Level02
  sceneTitle: Mountain Top
  shortDescription: 
  sceneType: 1
  music: {fileID: 8300000, guid: 9b76e6378a0625a40a7daefb23f394dc, type: 3}
  musicVolume: 1
  nextLevel: {fileID: 11400000, guid: 3a268f04027ee18428a2eb28806ec073, type: 2}
  isLastLevel: 1
  playerSpawnLocation: {fileID: 0}
