%YAML 1.1
%TAG !u! tag:unity3d.com,2011:
--- !u!1 &5574499059844919920
GameObject:
  m_ObjectHideFlags: 0
  m_CorrespondingSourceObject: {fileID: 0}
  m_PrefabInstance: {fileID: 0}
  m_PrefabAsset: {fileID: 0}
  serializedVersion: 6
  m_Component:
  - component: {fileID: 5574499059844919934}
  - component: {fileID: 5574499059844919921}
  m_Layer: 0
  m_Name: LevelManager
  m_TagString: Untagged
  m_Icon: {fileID: 0}
  m_NavMeshLayer: 0
  m_StaticEditorFlags: 0
  m_IsActive: 1
--- !u!4 &5574499059844919934
Transform:
  m_ObjectHideFlags: 0
  m_CorrespondingSourceObject: {fileID: 0}
  m_PrefabInstance: {fileID: 0}
  m_PrefabAsset: {fileID: 0}
  m_GameObject: {fileID: 5574499059844919920}
  m_LocalRotation: {x: 0, y: 0, z: 0, w: 1}
  m_LocalPosition: {x: 0, y: 0, z: 0}
  m_LocalScale: {x: 1, y: 1, z: 1}
  m_Children: []
  m_Father: {fileID: 0}
  m_RootOrder: 0
  m_LocalEulerAnglesHint: {x: 0, y: 0, z: 0}
--- !u!114 &5574499059844919921
MonoBehaviour:
  m_ObjectHideFlags: 0
  m_CorrespondingSourceObject: {fileID: 0}
  m_PrefabInstance: {fileID: 0}
  m_PrefabAsset: {fileID: 0}
  m_GameObject: {fileID: 5574499059844919920}
  m_Enabled: 1
  m_EditorHideFlags: 0
  m_Script: {fileID: 11500000, guid: 1c1c53bf4b750344b92fcf4d3aa26563, type: 3}
  m_Name: 
  m_EditorClassIdentifier: 
  _availableLevelList:
  - {fileID: 11400000, guid: 120977b9c51a4a84bbdc876d077131ac, type: 2}
  _menuList:
  - {fileID: 11400000, guid: db5471faa60c9ae4bbc673b54b321797, type: 2}
  _currentLoadedScene: {fileID: 0}
  _nextScene: {fileID: 0}
  _loadingSceneCanvas: {fileID: 0}
  _loadingBar: {fileID: 0}
  _loadingProgress: {fileID: 11400000, guid: b98fb51cd7493ce4a9a0e55b80432829, type: 2}
